%YAML 1.1
%TAG !u! tag:unity3d.com,2011:
--- !u!114 &11400000
MonoBehaviour:
  m_ObjectHideFlags: 0
  m_CorrespondingSourceObject: {fileID: 0}
  m_PrefabInstance: {fileID: 0}
  m_PrefabAsset: {fileID: 0}
  m_GameObject: {fileID: 0}
  m_Enabled: 1
  m_EditorHideFlags: 0
  m_Script: {fileID: 11500000, guid: c6a6d6056b8293643bec354afd3cafa2, type: 3}
  m_Name: Level1
  m_EditorClassIdentifier: 
  turetDamage: 100
  turretRange: 2
  timeToShoot: 1
  turretName: Name
  turretImage: {fileID: 21300000, guid: e1bd2047a35917c41aae170146639aa7, type: 3}
  turretModel: {fileID: 3920771347743549130, guid: 820de69a2ec32ba469c5f38acd0b0977,
    type: 3}
  placePrices:
  - materialType: 0
    cost: 1
  - materialType: 1
    cost: 2
  damageUpgradePrice:
    materialType: 3
    cost: 2
  rangeUpgradePrice:
    materialType: 0
    cost: 0
  ttsUpgradePrice:
    materialType: 0
    cost: 0
