%YAML 1.1
%TAG !u! tag:unity3d.com,2011:
--- !u!114 &11400000
MonoBehaviour:
  m_ObjectHideFlags: 0
  m_CorrespondingSourceObject: {fileID: 0}
  m_PrefabInstance: {fileID: 0}
  m_PrefabAsset: {fileID: 0}
  m_GameObject: {fileID: 0}
  m_Enabled: 1
  m_EditorHideFlags: 0
  m_Script: {fileID: 11500000, guid: ef44be6a2ba7df444ad203b6761b1e3d, type: 3}
  m_Name: Gold
  m_EditorClassIdentifier: 
  amount: 73
  materialType: 3
  materialIcon: {fileID: 0}
